10 72
-2.52950641e-04 2.52950641e-04 -1.79672937e-04 3.39735405e-04 -6.48918892e-05 3.89373743e-04 6.48918892e-05 3.89373743e-04 1.79672937e-04 3.39735405e-04 2.52950641e-04 2.52950641e-04 -3.39735405e-04 1.79672937e-04 -2.41630588e-04 2.41630588e-04 -8.73232101e-05 2.77076306e-04 8.73232101e-05 2.77076306e-04 2.41630588e-04 2.41630588e-04 3.39735405e-04 1.79672937e-04 -3.89373743e-04 6.48918892e-05 -2.77076306e-04 8.73232101e-05 -1.00157385e-04 1.00157385e-04 1.00157385e-04 1.00157385e-04 2.77076306e-04 8.73232101e-05 3.89373743e-04 6.48918892e-05 -3.89373743e-04 -6.48918892e-05 -2.77076306e-04 -8.73232101e-05 -1.00157385e-04 -1.00157385e-04 1.00157385e-04 -1.00157385e-04 2.77076306e-04 -8.73232101e-05 3.89373743e-04 -6.48918892e-05 -3.39735405e-04 -1.79672937e-04 -2.41630588e-04 -2.41630588e-04 -8.73232101e-05 -2.77076306e-04 8.73232101e-05 -2.77076306e-04 2.41630588e-04 -2.41630588e-04 3.39735405e-04 -1.79672937e-04 -2.52950641e-04 -2.52950641e-04 -1.79672937e-04 -3.39735405e-04 -6.48918892e-05 -3.89373743e-04 6.48918892e-05 -3.89373743e-04 1.79672937e-04 -3.39735405e-04 2.52950641e-04 -2.52950641e-04 
2.84341575e-04 2.84341575e-04 3.06799584e-04 2.06030463e-04 3.16242717e-04 7.51396680e-05 3.16242717e-04 -7.51396680e-05 3.06799584e-04 -2.06030463e-04 2.84341575e-04 -2.84341575e-04 2.06030463e-04 3.06799584e-04 2.24307543e-04 2.24307543e-04 2.32351963e-04 8.21390983e-05 2.32351963e-04 -8.21390983e-05 2.24307543e-04 -2.24307543e-04 2.06030463e-04 -3.06799584e-04 7.51396680e-05 3.16242717e-04 8.21390983e-05 2.32351963e-04 8.52752035e-05 8.52752035e-05 8.52752035e-05 -8.52752035e-05 8.21390983e-05 -2.32351963e-04 7.51396680e-05 -3.16242717e-04 -7.51396680e-05 3.16242717e-04 -8.21390983e-05 2.32351963e-04 -8.52752035e-05 8.52752035e-05 -8.52752035e-05 -8.52752035e-05 -8.21390983e-05 -2.32351963e-04 -7.51396680e-05 -3.16242717e-04 -2.06030463e-04 3.06799584e-04 -2.24307543e-04 2.24307543e-04 -2.32351963e-04 8.21390983e-05 -2.32351963e-04 -8.21390983e-05 -2.24307543e-04 -2.24307543e-04 -2.06030463e-04 -3.06799584e-04 -2.84341575e-04 2.84341575e-04 -3.06799584e-04 2.06030463e-04 -3.16242717e-04 7.51396680e-05 -3.16242717e-04 -7.51396680e-05 -3.06799584e-04 -2.06030463e-04 -2.84341575e-04 -2.84341575e-04 
-2.64173931e-04 2.64173931e-04 -3.16722651e-04 1.86256702e-04 -3.45263142e-04 6.70222645e-05 -3.45263142e-04 -6.70222645e-05 -3.16722651e-04 -1.86256702e-04 -2.64173931e-04 -2.64173931e-04 -1.86256702e-04 3.16722651e-04 -2.22642079e-04 2.22642079e-04 -2.42347444e-04 8.00083636e-05 -2.42347444e-04 -8.00083636e-05 -2.22642079e-04 -2.22642079e-04 -1.86256702e-04 -3.16722651e-04 -6.70222645e-05 3.45263142e-04 -8.00083636e-05 2.42347444e-04 -8.70315474e-05 8.70315474e-05 -8.70315474e-05 -8.70315474e-05 -8.00083636e-05 -2.42347444e-04 -6.70222645e-05 -3.45263142e-04 6.70222645e-05 3.45263142e-04 8.00083636e-05 2.42347444e-04 8.70315474e-05 8.70315474e-05 8.70315474e-05 -8.70315474e-05 8.00083636e-05 -2.42347444e-04 6.70222645e-05 -3.45263142e-04 1.86256702e-04 3.16722651e-04 2.22642079e-04 2.22642079e-04 2.42347444e-04 8.00083636e-05 2.42347444e-04 -8.00083636e-05 2.22642079e-04 -2.22642079e-04 1.86256702e-04 -3.16722651e-04 2.64173931e-04 2.64173931e-04 3.16722651e-04 1.86256702e-04 3.45263142e-04 6.70222645e-05 3.45263142e-04 -6.70222645e-05 3.16722651e-04 -1.86256702e-04 2.64173931e-04 -2.64173931e-04 
-6.03305094e-05 3.06878312e-04 -8.41524698e-05 3.57143661e-04 -1.05765953e-04 3.85810982e-04 -1.22017997e-04 3.90369215e-04 -1.30057429e-04 3.70257899e-04 -1.27573633e-04 3.26817318e-04 -8.57314682e-05 3.54399225e-04 -1.08085622e-04 4.11093375e-04 -1.25813564e-04 4.42365458e-04 -1.36553317e-04 4.45491366e-04 -1.38373144e-04 4.20074265e-04 -1.29958462e-04 3.68011015e-04 -1.07390727e-04 3.81684427e-04 -1.26363184e-04 4.40816128e-04 -1.38333406e-04 4.72274524e-04 -1.42074256e-04 4.73383765e-04 -1.36905122e-04 4.44000692e-04 -1.22763100e-04 3.86503501e-04 -1.22763100e-04 3.86503501e-04 -1.36905122e-04 4.44000692e-04 -1.42074256e-04 4.73383765e-04 -1.38333406e-04 4.72274524e-04 -1.26363184e-04 4.40816128e-04 -1.07390727e-04 3.81684427e-04 -1.29958462e-04 3.68011015e-04 -1.38373144e-04 4.20074265e-04 -1.36553317e-04 4.45491366e-04 -1.25813564e-04 4.42365458e-04 -1.08085622e-04 4.11093375e-04 -8.57314682e-05 3.54399225e-04 -1.27573633e-04 3.26817318e-04 -1.30057429e-04 3.70257899e-04 -1.22017997e-04 3.90369215e-04 -1.05765953e-04 3.85810982e-04 -8.41524698e-05 3.57143661e-04 -6.03305094e-05 3.06878312e-04 
-3.26817318e-04 -1.27573633e-04 -3.68011015e-04 -1.29958462e-04 -3.86503501e-04 -1.22763100e-04 -3.81684427e-04 -1.07390727e-04 -3.54399225e-04 -8.57314682e-05 -3.06878312e-04 -6.03305094e-05 -3.70257899e-04 -1.30057429e-04 -4.20074265e-04 -1.38373144e-04 -4.44000692e-04 -1.36905122e-04 -4.40816128e-04 -1.26363184e-04 -4.11093375e-04 -1.08085622e-04 -3.57143661e-04 -8.41524698e-05 -3.90369215e-04 -1.22017997e-04 -4.45491366e-04 -1.36553317e-04 -4.73383765e-04 -1.42074256e-04 -4.72274524e-04 -1.38333406e-04 -4.42365458e-04 -1.25813564e-04 -3.85810982e-04 -1.05765953e-04 -3.85810982e-04 -1.05765953e-04 -4.42365458e-04 -1.25813564e-04 -4.72274524e-04 -1.38333406e-04 -4.73383765e-04 -1.42074256e-04 -4.45491366e-04 -1.36553317e-04 -3.90369215e-04 -1.22017997e-04 -3.57143661e-04 -8.41524698e-05 -4.11093375e-04 -1.08085622e-04 -4.40816128e-04 -1.26363184e-04 -4.44000692e-04 -1.36905122e-04 -4.20074265e-04 -1.38373144e-04 -3.70257899e-04 -1.30057429e-04 -3.06878312e-04 -6.03305094e-05 -3.54399225e-04 -8.57314682e-05 -3.81684427e-04 -1.07390727e-04 -3.86503501e-04 -1.22763100e-04 -3.68011015e-04 -1.29958462e-04 -3.26817318e-04 -1.27573633e-04 
1.38675058e-03 4.38978215e-10 1.38675058e-03 4.74416432e-10 1.38675058e-03 5.09854661e-10 1.38675058e-03 5.45292843e-10 1.38675058e-03 5.80730931e-10 1.38675058e-03 6.16168861e-10 1.38675054e-03 4.38979068e-10 1.38675054e-03 4.74417410e-10 1.38675054e-03 5.09855787e-10 1.38675054e-03 5.45294167e-10 1.38675054e-03 5.80732520e-10 1.38675054e-03 6.16170761e-10 1.38675051e-03 4.38980204e-10 1.38675051e-03 4.74418664e-10 1.38675051e-03 5.09857141e-10 1.38675051e-03 5.45295624e-10 1.38675051e-03 5.80734101e-10 1.38675051e-03 6.16172535e-10 1.38675047e-03 4.38981430e-10 1.38675047e-03 4.74420004e-10 1.38675047e-03 5.09858561e-10 1.38675047e-03 5.45297112e-10 1.38675047e-03 5.80735670e-10 1.38675047e-03 6.16174270e-10 1.38675044e-03 4.38982566e-10 1.38675044e-03 4.74421258e-10 1.38675044e-03 5.09859916e-10 1.38675044e-03 5.45298570e-10 1.38675044e-03 5.80737251e-10 1.38675044e-03 6.16176044e-10 1.38675040e-03 4.38983419e-10 1.38675040e-03 4.74422236e-10 1.38675040e-03 5.09861042e-10 1.38675040e-03 5.45299894e-10 1.38675040e-03 5.80738841e-10 1.38675040e-03 6.16177944e-10 
4.34019420e-04 1.72861457e-04 4.34019420e-04 3.46469404e-04 4.34019420e-04 5.20077351e-04 4.34019420e-04 6.93685298e-04 4.34019420e-04 8.67293245e-04 4.34019420e-04 1.04090119e-03 2.60411473e-04 1.72861457e-04 2.60411473e-04 3.46469404e-04 2.60411473e-04 5.20077351e-04 2.60411473e-04 6.93685298e-04 2.60411473e-04 8.67293245e-04 2.60411473e-04 1.04090119e-03 8.68035263e-05 1.72861457e-04 8.68035263e-05 3.46469404e-04 8.68035263e-05 5.20077351e-04 8.68035263e-05 6.93685298e-04 8.68035263e-05 8.67293245e-04 8.68035263e-05 1.04090119e-03 -8.68044206e-05 1.72861457e-04 -8.68044206e-05 3.46469404e-04 -8.68044206e-05 5.20077351e-04 -8.68044205e-05 6.93685298e-04 -8.68044205e-05 8.67293245e-04 -8.68044205e-05 1.04090119e-03 -2.60412367e-04 1.72861457e-04 -2.60412367e-04 3.46469404e-04 -2.60412367e-04 5.20077351e-04 -2.60412367e-04 6.93685298e-04 -2.60412367e-04 8.67293245e-04 -2.60412367e-04 1.04090119e-03 -4.34020314e-04 1.72861457e-04 -4.34020314e-04 3.46469404e-04 -4.34020314e-04 5.20077351e-04 -4.34020314e-04 6.93685298e-04 -4.34020314e-04 8.67293245e-04 -4.34020314e-04 1.04090119e-03 
5.01059673e-04 4.50664230e-05 4.63454105e-04 -6.56735392e-05 4.37225448e-04 -1.24760850e-04 4.22357079e-04 -1.46764729e-04 4.17208777e-04 -1.42963464e-04 4.19584363e-04 -1.21339213e-04 6.59342737e-04 3.21269157e-05 5.93050310e-04 -3.80593991e-05 5.36662787e-04 -7.61844821e-05 4.93102492e-04 -9.07863263e-05 4.62790608e-04 -8.88242024e-05 4.44857279e-04 -7.54423337e-05 7.37988666e-04 1.16451764e-05 6.58762583e-04 -1.23701773e-05 5.88245166e-04 -2.55468275e-05 5.30862196e-04 -3.06713540e-05 4.88238979e-04 -3.00875964e-05 4.60326947e-04 -2.55728325e-05 7.37988666e-04 -1.16451764e-05 6.58762583e-04 1.23701773e-05 5.88245166e-04 2.55468275e-05 5.30862196e-04 3.06713540e-05 4.88238979e-04 3.00875964e-05 4.60326947e-04 2.55728325e-05 6.59342737e-04 -3.21269157e-05 5.93050310e-04 3.80593991e-05 5.36662787e-04 7.61844821e-05 4.93102492e-04 9.07863263e-05 4.62790608e-04 8.88242024e-05 4.44857279e-04 7.54423337e-05 5.01059673e-04 -4.50664230e-05 4.63454105e-04 6.56735392e-05 4.37225448e-04 1.24760850e-04 4.22357079e-04 1.46764729e-04 4.17208777e-04 1.42963464e-04 4.19584363e-04 1.21339213e-04 
6.95443261e-05 7.01661656e-04 2.05785145e-05 8.53186394e-04 -3.95562021e-05 9.25697041e-04 -1.04646982e-04 9.15615916e-04 -1.68084742e-04 8.23936457e-04 -2.24049720e-04 6.56149825e-04 2.09848684e-05 6.65195071e-04 -4.81546690e-07 8.09807660e-04 -2.85566829e-05 8.80718812e-04 -5.98799967e-05 8.72096601e-04 -9.06522020e-05 7.84664922e-04 -1.17629397e-04 6.25324360e-04 3.52232164e-06 6.46010491e-04 -2.34071397e-06 7.86492675e-04 -1.03621178e-05 8.56376181e-04 -1.95019453e-05 8.48553692e-04 -2.85410113e-05 7.63562827e-04 -3.64486529e-05 6.09033922e-04 -3.52232164e-06 6.46010491e-04 2.34071397e-06 7.86492675e-04 1.03621178e-05 8.56376181e-04 1.95019453e-05 8.48553692e-04 2.85410113e-05 7.63562827e-04 3.64486529e-05 6.09033922e-04 -2.09848684e-05 6.65195071e-04 4.81546690e-07 8.09807660e-04 2.85566829e-05 8.80718812e-04 5.98799967e-05 8.72096601e-04 9.06522020e-05 7.84664922e-04 1.17629397e-04 6.25324360e-04 -6.95443261e-05 7.01661656e-04 -2.05785145e-05 8.53186394e-04 3.95562021e-05 9.25697041e-04 1.04646982e-04 9.15615916e-04 1.68084742e-04 8.23936457e-04 2.24049720e-04 6.56149825e-04 
7.07088748e-04 1.84720822e-04 6.63447372e-04 1.68325422e-04 6.31914933e-04 1.44538017e-04 6.14772396e-04 9.95454311e-05 6.12660418e-04 1.82812923e-05 6.23789252e-04 -1.14467095e-04 7.91742637e-04 1.15012888e-04 7.62698732e-04 1.04323737e-04 7.50571713e-04 8.87220711e-05 7.56612987e-04 5.97917693e-05 7.79739794e-04 8.56299964e-06 8.15996221e-04 -7.37054555e-05 8.37453857e-04 3.90250426e-05 8.15602626e-04 3.53078640e-05 8.12871246e-04 2.98678509e-05 8.29879761e-04 1.98844593e-05 8.64668861e-04 2.38870475e-06 9.12293830e-04 -2.54639054e-05 8.37453857e-04 -3.90250426e-05 8.15602626e-04 -3.53078640e-05 8.12871246e-04 -2.98678509e-05 8.29879761e-04 -1.98844593e-05 8.64668861e-04 -2.38870475e-06 9.12293830e-04 2.54639054e-05 7.91742637e-04 -1.15012888e-04 7.62698732e-04 -1.04323737e-04 7.50571713e-04 -8.87220711e-05 7.56612987e-04 -5.97917693e-05 7.79739794e-04 -8.56299964e-06 8.15996221e-04 7.37054555e-05 7.07088748e-04 -1.84720822e-04 6.63447372e-04 -1.68325422e-04 6.31914933e-04 -1.44538017e-04 6.14772396e-04 -9.95454311e-05 6.12660418e-04 -1.82812923e-05 6.23789252e-04 1.14467095e-04 
