18
1.4206349206349205e+00 1.4206349206349205e+00 -7.0634920634920639e-01 -7.0634920634920628e-01 0.0000000000000000e+00 0.0000000000000000e+00 2.4603174603174605e-01 2.4603174603174605e-01 -9.6031746031746024e-01 -9.6031746031746024e-01 0.0000000000000000e+00 0.0000000000000000e+00 0.0000000000000000e+00 0.0000000000000000e+00 0.0000000000000000e+00 0.0000000000000000e+00 0.0000000000000000e+00 0.0000000000000000e+00 
1.4206349206349205e+00 1.4206349206349205e+00 -7.0634920634920628e-01 -7.0634920634920639e-01 0.0000000000000000e+00 0.0000000000000000e+00 2.4603174603174605e-01 2.4603174603174605e-01 -9.6031746031746024e-01 -9.6031746031746024e-01 0.0000000000000000e+00 0.0000000000000000e+00 0.0000000000000000e+00 0.0000000000000000e+00 0.0000000000000000e+00 0.0000000000000000e+00 0.0000000000000000e+00 0.0000000000000000e+00 
-7.0634920634920639e-01 -7.0634920634920628e-01 1.8412698412698412e+00 1.8412698412698412e+00 -7.0634920634920639e-01 -7.0634920634920628e-01 3.9682539682539687e-02 3.9682539682539687e-02 4.9206349206349209e-01 4.9206349206349209e-01 -9.6031746031746024e-01 -9.6031746031746024e-01 0.0000000000000000e+00 0.0000000000000000e+00 0.0000000000000000e+00 0.0000000000000000e+00 0.0000000000000000e+00 0.0000000000000000e+00 
-7.0634920634920628e-01 -7.0634920634920639e-01 1.8412698412698412e+00 1.8412698412698412e+00 -7.0634920634920628e-01 -7.0634920634920639e-01 3.9682539682539687e-02 3.9682539682539687e-02 4.9206349206349209e-01 4.9206349206349209e-01 -9.6031746031746024e-01 -9.6031746031746024e-01 0.0000000000000000e+00 0.0000000000000000e+00 0.0000000000000000e+00 0.0000000000000000e+00 0.0000000000000000e+00 0.0000000000000000e+00 
0.0000000000000000e+00 0.0000000000000000e+00 -7.0634920634920639e-01 -7.0634920634920628e-01 4.2063492063492069e-01 4.2063492063492069e-01 0.0000000000000000e+00 0.0000000000000000e+00 3.9682539682539687e-02 3.9682539682539687e-02 2.4603174603174605e-01 2.4603174603174605e-01 0.0000000000000000e+00 0.0000000000000000e+00 0.0000000000000000e+00 0.0000000000000000e+00 0.0000000000000000e+00 0.0000000000000000e+00 
0.0000000000000000e+00 0.0000000000000000e+00 -7.0634920634920628e-01 -7.0634920634920639e-01 4.2063492063492069e-01 4.2063492063492069e-01 0.0000000000000000e+00 0.0000000000000000e+00 3.9682539682539687e-02 3.9682539682539687e-02 2.4603174603174605e-01 2.4603174603174605e-01 0.0000000000000000e+00 0.0000000000000000e+00 0.0000000000000000e+00 0.0000000000000000e+00 0.0000000000000000e+00 0.0000000000000000e+00 
2.4603174603174605e-01 2.4603174603174605e-01 3.9682539682539687e-02 3.9682539682539687e-02 0.0000000000000000e+00 0.0000000000000000e+00 1.8412698412698412e+00 1.8412698412698412e+00 -1.4126984126984128e+00 -1.4126984126984126e+00 0.0000000000000000e+00 0.0000000000000000e+00 2.4603174603174605e-01 2.4603174603174605e-01 -9.6031746031746024e-01 -9.6031746031746024e-01 0.0000000000000000e+00 0.0000000000000000e+00 
2.4603174603174605e-01 2.4603174603174605e-01 3.9682539682539687e-02 3.9682539682539687e-02 0.0000000000000000e+00 0.0000000000000000e+00 1.8412698412698412e+00 1.8412698412698412e+00 -1.4126984126984126e+00 -1.4126984126984128e+00 0.0000000000000000e+00 0.0000000000000000e+00 2.4603174603174605e-01 2.4603174603174605e-01 -9.6031746031746024e-01 -9.6031746031746024e-01 0.0000000000000000e+00 0.0000000000000000e+00 
-9.6031746031746024e-01 -9.6031746031746024e-01 4.9206349206349209e-01 4.9206349206349209e-01 3.9682539682539687e-02 3.9682539682539687e-02 -1.4126984126984128e+00 -1.4126984126984126e+00 3.6825396825396828e+00 3.6825396825396828e+00 -1.4126984126984128e+00 -1.4126984126984126e+00 3.9682539682539687e-02 3.9682539682539687e-02 4.9206349206349209e-01 4.9206349206349209e-01 -9.6031746031746024e-01 -9.6031746031746024e-01 
-9.6031746031746024e-01 -9.6031746031746024e-01 4.9206349206349209e-01 4.9206349206349209e-01 3.9682539682539687e-02 3.9682539682539687e-02 -1.4126984126984126e+00 -1.4126984126984128e+00 3.6825396825396828e+00 3.6825396825396828e+00 -1.4126984126984126e+00 -1.4126984126984128e+00 3.9682539682539687e-02 3.9682539682539687e-02 4.9206349206349209e-01 4.9206349206349209e-01 -9.6031746031746024e-01 -9.6031746031746024e-01 
0.0000000000000000e+00 0.0000000000000000e+00 -9.6031746031746024e-01 -9.6031746031746024e-01 2.4603174603174605e-01 2.4603174603174605e-01 0.0000000000000000e+00 0.0000000000000000e+00 -1.4126984126984128e+00 -1.4126984126984126e+00 1.8412698412698412e+00 1.8412698412698412e+00 0.0000000000000000e+00 0.0000000000000000e+00 3.9682539682539687e-02 3.9682539682539687e-02 2.4603174603174605e-01 2.4603174603174605e-01 
0.0000000000000000e+00 0.0000000000000000e+00 -9.6031746031746024e-01 -9.6031746031746024e-01 2.4603174603174605e-01 2.4603174603174605e-01 0.0000000000000000e+00 0.0000000000000000e+00 -1.4126984126984126e+00 -1.4126984126984128e+00 1.8412698412698412e+00 1.8412698412698412e+00 0.0000000000000000e+00 0.0000000000000000e+00 3.9682539682539687e-02 3.9682539682539687e-02 2.4603174603174605e-01 2.4603174603174605e-01 
0.0000000000000000e+00 0.0000000000000000e+00 0.0000000000000000e+00 0.0000000000000000e+00 0.0000000000000000e+00 0.0000000000000000e+00 2.4603174603174605e-01 2.4603174603174605e-01 3.9682539682539687e-02 3.9682539682539687e-02 0.0000000000000000e+00 0.0000000000000000e+00 4.2063492063492069e-01 4.2063492063492069e-01 -7.0634920634920639e-01 -7.0634920634920628e-01 0.0000000000000000e+00 0.0000000000000000e+00 
0.0000000000000000e+00 0.0000000000000000e+00 0.0000000000000000e+00 0.0000000000000000e+00 0.0000000000000000e+00 0.0000000000000000e+00 2.4603174603174605e-01 2.4603174603174605e-01 3.9682539682539687e-02 3.9682539682539687e-02 0.0000000000000000e+00 0.0000000000000000e+00 4.2063492063492069e-01 4.2063492063492069e-01 -7.0634920634920628e-01 -7.0634920634920639e-01 0.0000000000000000e+00 0.0000000000000000e+00 
0.0000000000000000e+00 0.0000000000000000e+00 0.0000000000000000e+00 0.0000000000000000e+00 0.0000000000000000e+00 0.0000000000000000e+00 -9.6031746031746024e-01 -9.6031746031746024e-01 4.9206349206349209e-01 4.9206349206349209e-01 3.9682539682539687e-02 3.9682539682539687e-02 -7.0634920634920639e-01 -7.0634920634920628e-01 1.8412698412698412e+00 1.8412698412698412e+00 -7.0634920634920639e-01 -7.0634920634920628e-01 
0.0000000000000000e+00 0.0000000000000000e+00 0.0000000000000000e+00 0.0000000000000000e+00 0.0000000000000000e+00 0.0000000000000000e+00 -9.6031746031746024e-01 -9.6031746031746024e-01 4.9206349206349209e-01 4.9206349206349209e-01 3.9682539682539687e-02 3.9682539682539687e-02 -7.0634920634920628e-01 -7.0634920634920639e-01 1.8412698412698412e+00 1.8412698412698412e+00 -7.0634920634920628e-01 -7.0634920634920639e-01 
0.0000000000000000e+00 0.0000000000000000e+00 0.0000000000000000e+00 0.0000000000000000e+00 0.0000000000000000e+00 0.0000000000000000e+00 0.0000000000000000e+00 0.0000000000000000e+00 -9.6031746031746024e-01 -9.6031746031746024e-01 2.4603174603174605e-01 2.4603174603174605e-01 0.0000000000000000e+00 0.0000000000000000e+00 -7.0634920634920639e-01 -7.0634920634920628e-01 1.4206349206349205e+00 1.4206349206349205e+00 
0.0000000000000000e+00 0.0000000000000000e+00 0.0000000000000000e+00 0.0000000000000000e+00 0.0000000000000000e+00 0.0000000000000000e+00 0.0000000000000000e+00 0.0000000000000000e+00 -9.6031746031746024e-01 -9.6031746031746024e-01 2.4603174603174605e-01 2.4603174603174605e-01 0.0000000000000000e+00 0.0000000000000000e+00 -7.0634920634920628e-01 -7.0634920634920639e-01 1.4206349206349205e+00 1.4206349206349205e+00 
